102
102
111111111111111111111111111111111111111111111111111111111111111111111111111111111111111111111111111111
111100010001011000000111110110100100011000010111000110101010011111110100010100110110101101111110110101
199990999990000000000099999999999999000000000009999999999990000000000000099999999999000000099999990001
199999000000000000000099999999999999000000000009999999999990000999899000099999999999000000099999990001
199999999990000000000099999999999999000000000000000000000000000998999000088888888999000000099999990001
199999999990000111100099999999999999000000000009999999999990000989999000099999999899000000099999990001
110111101111101001011111000011001010011011001099999999989999999989999991100110110010110001110110101001
100111001010010011001000011111101100011101010011110111000011000000000000000000111000100110000000001011
100110011010110101010010111011100110001001101111110010111001010111111101101111001110010000101101000101
100100011101100011010011101101000010101100100110000011110001000000000000000000111110100011000110101101
110111110110011100100000001011000101010011111011000111000100000000011011000000001111110001000001111101
110101100000111000011111101111011010010000000111000100111111001010011100111100001100101110100010011101
100110111100010000111110100000000000000000100101011011001011111001001001011010001001011001100000101001
100110001000101000000000011001011111100000011001010010111110110111011010100011111100100110100101110111
101110111110010101000000000111111001010001011001010110001100006011100011100011010110001011111100001111
111001101010111111001000110111100111110110100000100011110101001110110101100110011100001011001010000011
111001100898989898999988898989889899999898889889889990000000000000000000000000000000000000098988988981
111001100898980000000000000000000000000000889889889999000000000000000000000000000000000888898988988981
101001110010100101110000010000011111000001111001111111010011010111001001111101000110110001110010101001
110111101111101001011111000011001010011011001099999999989999999999999991100110110010110001110110101001
100111001010010011001000011111101100011101010011110111000011101010100110000000111000100110000000001011
100110011010110101010010111011100110001001101111110010100000000000000101101111001110010000101101000101
100100011101100011010011101101000010101100100110000011110001011010111101111010111110100011000110101101
110111110110011100100000001011000101010011111011000111000000000000000011000000001111110001000001111101
110101100000111000011111101111011010010000000000000000000000001010011100111100001100101110100010011101
100110111100010000111110100100010101001101100101011011001011111001001001011010001001011001100000101001
100110001000101000000000011001011111100000011001010010100000000000000010100011111100100110100101110111
101110111110010101000000000111111001010001011001010110001100000011100011100011010110001011111100001111
111001101010111111001000110111100111110110100000100011110101000000000000000000011100001011001010000011
101001110010100101110000010000011111000000000000000000000000000111001001111101000110110001110010101001
100111000000100101101001001011000000111010010100000101010110011011111001100100100100001101010110100001
101111000111011100110101101000010010000110110110100101010110001011100010001111110110000111010111000111
100101011001111101110000101010011000011011100110010101011100111111111011110100101111011101110011111001
110011111101011101100001011110111000000011011001001001100011000000100111100000110101100100111110111101
110111100010010100110011000110000011101110101100000100011010101101000010111100110000100010000011101011
111110111010110001100011111011000001111000100110101101011010011010111110011001100111101110011100010101
101110001110010000000101010000010100101010101100001010001000110100111001110010011010001010001101001111
110011101111111010110000101000001111110010100100111110001100111101010101111111000011011101111000100001
101101101110000110110101011001100001100110000111110110001101110100001110010000010110010010000101001011
110111011101001011111111100011010100110111000101100100111100100010011101000110100110101011000110110101
100010101000010110001010110111000000011000010100110111010000101011011011010000000001011011111111000011
110110010100011101111010110110001000001011101110101010110100000101000001100011000111100010000110011111
100001111010110011110101110110111111111001000010100011111000100110111111011001011100010110110101101001
111111000111110100010010101110010110100001101000101100110111010111000110001000101011100111010000111111
100101011011111110000001111000111001011111110000010101110111001000011100000100111111111000111011010001
101010001000110011010001111000001010011011080110000010010000000100101100010100010100011110100000011011
110001010101011101011000100010000100100001011001000101000111101000101110011001101101010110001000111001
110110101100101101001001110001000101111001000011010110101101011000111000000001010011011101011111101111
100011010111001000101101101110001010111011101100000101110011000101001001100001010010100011101110000111
111000111101001101011010011110110011011101101101100000111101000100100000111010001100001110011100111001
111111010000110111000011000000010111000000111011111100100101101111000101011111011010000011010101001111
110110100111000101110110001111001101110001110010111110010110000111110100101110011100010011110000011111
199999999990000000000099999999999999000000000009999999999990000000000000099999999999000000099999990001
199999999990000000000099999999999999000000000009999999999990000000000000099999999999000000099999990001
199999999990000000000099999999999999000000000009999999999990000000000000099999999999000000099999990001
199999999990000111100000000000000000000000000000000000000000000000000000099999999999000000099999990001
199999999990000000000099999999999999000000000000000000000000000000000000099999999999000000099999990001
199999999990000000000099999999999999000000000009999999999990000000000000099999999999000000099999990001
101001110100110010100000110000001000111101010110000100110000110010010101101110111111100010001010011101
199999999990000000000099999999999999000000000009999999999990000000000000099999999999000000099999990001
199999999990000000000000000000000000000000000009999999999990000000000000099999999998000000099999990001
199999999990000000000099999999999999000000000000000000000000000000000000099999999989000000099999990001
199999999990000000000099999999999999000000000009999999999990000000000000099999999899000000099999990001
199999999990000000000000000000000000000000000000000000000000000000000000099999998999000000099999990001
199999999990000000000099999999999999000000000009999999999990000000000000000000000000000000099999990001
101001001010001011110101001101011001110011100011010101001101001111000010110011010000011011110110100001
110011011101111011010100110100111111110111011101001100100100101111010001010001011011010000100010000101
199999999990000000000099999999999999000000000009999999999990000000000000000000000000000000099999990001
199999999990000000000099999999999999000000000009999999999990000000000000089898989889000000099999990001
199999999999999999999899999999999999000000000009999999999990000000000000000000000000000000099999990001
100101011011111110000001111000111001011111110000010101110111001000011100000100111111111000111011010001
101010001000110011010001111000001010011011000110000010010000000100101100010100010100011110100000011011
110001010101011101011000100010000100100001011001000101000111101000101110011001101101010110001000111001
101001110100110010100000110000000000000000000000000100110000110010010101100000000000000010001010011101
199999999990000000000099999999999999000000000009999999999990000000000000099999999999000000099999990001
199999999990000000000099999999999999000000000000000000000000000000000000000000000000000000099999990001
199999999990000000000000000000000000000000000009999999999990000000000000099999999999000000099999990001
199999999990000000000099999999999999000000000009999999999990000000000000000000000000000000099999990001
199999999990000000000099999999999999000000000009999990000000000000000988899999999999911111899999990001
199999999990000000000000000000000000000000000009999999999990000000000000000000000000000100099999990001
199999999990000000000099999999999999000000000009999999999900000000000008899999999999000100099999990001
199999999999999999998900000000000000000000000000009999999999990000000000000000000000000000100099999991
199999999990000000000099999999999999000000000009999999990000000000000988899999999999000110099999990001
199999999990000111100099999900000000000000000000000000000000000000000000000000000000000000000099999891
199999999990000000000099999999999999000000000009999999999990000000000000099999999999000100099999990001
199999999990000000000000000000000000000000000009999999999990000000000000000000000000000100099999990001
101001110100110010100000110000001000111101010110000100110000110010010000000000000000000010001010011101
100101011011111110000001111000111001011111110000010101110111001000011100000100000000000000111011010001
101010001000110011010001111000001000000000000000000010010000000100101100000000000000000010100000011011
110001010101011101011000100010000100100001011001000101000111101000000000000000101101010110001000111001
199999999999999999998000000000000000000000000000000000000000000000000000000000000000000000000099999991
199999999990000000000000000000000000011101010000000000000000111010101199990000000000000000099999990001
199999999990000000000099999999999999000000000000000000000000000000000000000000000000000000099999990001
100110110101111000100111110100010010111010100000000000000000010011111001000000000000000110010100010111
100000000011100000111011011111001111010100000000000001100111100010100000000000000000000011000100100001
111001000011111010100000011101100110000010010011001110000000000000000000000011001100000000110111110111
111001000011111010100000011101100110000010010011001110000001100000000000000000001100000000110111110111
100101110111011000010011111110011000110000000000000000110000100000000070000001001000010101001000100111
110100001000101010010111001001011011000000011100001101100100100199910110101011011001001101101001110101
100001010110000000110110000011101111000011111100101101100011111010010110000101001001101000001000010001
110110010000010100111111101100001111101100011010111011111001101010011000000011000101010010000011111111
111111111111111111111111111111111111111111111111111111111111111111111111111111111111111111111111111111
